-------------------------------------------------------------------------------
Test set: com.zipcode.solution.TestStartup
-------------------------------------------------------------------------------
Tests run: 1, Failures: 0, Errors: 0, Skipped: 0, Time elapsed: 0.048 sec
