/Users/sbhat/workspace/zip-code-solution/src/test/java/com/zipcode/solution/service/ZipCodeProcessorServiceTest.java
/Users/sbhat/workspace/zip-code-solution/src/test/java/com/zipcode/solution/TestStartup.java
/Users/sbhat/workspace/zip-code-solution/src/test/java/com/zipcode/solution/service/validation/ZipCodeValidatorTest.java
